-------------------------------------------------------------------------------
Test set: com.example.dep.DepTest
-------------------------------------------------------------------------------
Tests run: 1, Failures: 0, Errors: 0, Skipped: 0, Time elapsed: 0.006 sec - in com.example.dep.DepTest
